<?xml version="1.0" encoding="utf-8"?>
<!-- Generator: Adobe Illustrator 16.0.0, SVG Export Plug-In . SVG Version: 6.00 Build 0)  -->
<!DOCTYPE svg PUBLIC "-//W3C//DTD SVG 1.1//EN" "http://www.w3.org/Graphics/SVG/1.1/DTD/svg11.dtd">
<svg version="1.1" id="Layer_1" xmlns="http://www.w3.org/2000/svg" xmlns:xlink="http://www.w3.org/1999/xlink" x="0px" y="0px"
	 width="200px" height="200px" viewBox="0 0 200 200" enable-background="new 0 0 200 200" xml:space="preserve">
<path fill="#299855" d="M16.624,161.659L16.624,161.659c0.822,1.37,1.279,2.922,1.279,4.658L12.376,195l25.668-10.094
	c1.233-0.502,2.558-0.776,3.974-0.776c1.279,0,2.512,0.229,3.654,0.64c0,0,0.046,0,0.092,0c0.183,0.091,0.365,0.137,0.548,0.228
	c8.13,3.335,17.082,5.208,26.445,5.208c21.146,0,40.01-9.364,52.432-24.024c-6.439,1.644-13.199,2.603-20.141,2.603
	c-43.801,0-79.334-34.254-79.334-76.502c0-5.39,0.594-10.596,1.69-15.666C13.7,88.536,5.068,105.755,5.068,124.938
	c0,12.971,3.928,25.211,10.733,35.396C16.076,160.699,16.35,161.202,16.624,161.659z"/>
<path fill="#3ADB76" d="M115.733,5C77.506,5,45.58,31.125,38.09,65.836c-1.096,5.07-1.69,10.276-1.69,15.666
	c0,42.248,35.488,76.502,79.333,76.502c6.988,0,13.702-0.959,20.144-2.604c3.698-0.959,7.353-2.055,10.87-3.471
	c0.228-0.092,0.409-0.183,0.638-0.274c0.047,0,0.092,0,0.092-0.046c1.325-0.502,2.786-0.775,4.248-0.775
	c1.645,0,3.197,0.318,4.612,0.913l31.332,11.783l-7.765-33.707c0-2.009,0.549-3.928,1.508-5.572l0,0
	c0.274-0.502,0.64-0.959,0.959-1.416c7.946-11.92,12.561-26.125,12.561-41.333C195.068,39.255,159.58,5,115.733,5z"/>
</svg>
