<?xml version="1.0" encoding="utf-8"?>
<!-- Generator: Adobe Illustrator 16.0.0, SVG Export Plug-In . SVG Version: 6.00 Build 0)  -->
<!DOCTYPE svg PUBLIC "-//W3C//DTD SVG 1.1//EN" "http://www.w3.org/Graphics/SVG/1.1/DTD/svg11.dtd">
<svg version="1.1" id="Layer_1" xmlns="http://www.w3.org/2000/svg" xmlns:xlink="http://www.w3.org/1999/xlink" x="0px" y="0px"
	 width="439px" height="79px" viewBox="0 0 439 79" enable-background="new 0 0 439 79" xml:space="preserve">
<rect fill="#303030" width="439" height="79"/>
<g>
	<rect x="5" y="5" fill="#F26530" width="213" height="69"/>
	<path fill="#FF4622" d="M217,6v67H6V6H217 M219,4H4v71h215V4L219,4z"/>
</g>
<g>
	<path fill="#FFFFFF" d="M102.799,40.937l4.697-9.036h2.695l-6.206,11.286v6.712h-2.374v-6.712L95.407,31.9h2.719L102.799,40.937z"
		/>
	<path fill="#FFFFFF" d="M121.292,45.188h-7.54l-1.694,4.71h-2.447l6.873-17.998h2.077l6.885,17.998h-2.436L121.292,45.188z
		 M114.468,43.248h6.119l-3.065-8.418L114.468,43.248z"/>
</g>
<g>
	<rect x="220" y="4" fill="#515151" width="215" height="71"/>
</g>
<g>
	<path fill="#FFFFFF" d="M326.143,49.898h-2.386l-9.061-13.87v13.87h-2.386V31.9h2.386l9.086,13.932V31.9h2.361V49.898z"/>
	<path fill="#FFFFFF" d="M340.519,45.188h-7.54l-1.694,4.71h-2.447l6.873-17.998h2.077l6.885,17.998h-2.436L340.519,45.188z
		 M333.696,43.248h6.119l-3.065-8.418L333.696,43.248z"/>
</g>
<rect x="219" y="4" fill="#303030" width="1" height="71"/>
</svg>
