<?xml version="1.0" encoding="utf-8"?>
<!-- Generator: Adobe Illustrator 16.0.0, SVG Export Plug-In . SVG Version: 6.00 Build 0)  -->
<!DOCTYPE svg PUBLIC "-//W3C//DTD SVG 1.0//EN" "http://www.w3.org/TR/2001/REC-SVG-20010904/DTD/svg10.dtd">
<svg version="1.0" id="Layer_1" xmlns="http://www.w3.org/2000/svg" xmlns:xlink="http://www.w3.org/1999/xlink" x="0px" y="0px"
	 width="512px" height="512px" viewBox="0 0 512 512" enable-background="new 0 0 512 512" xml:space="preserve">
<g>
	<path fill="#F13647" d="M466,26H46c-11.028,0-20,8.972-20,20v420c0,11.028,8.972,20,20,20h420c11.028,0,20-8.972,20-20V46
		C486,34.972,477.028,26,466,26z"/>
	<path fill="#FFFFFF" d="M466,6H46C24,6,6,24,6,46v420c0,22,18,40,40,40h420c22,0,40-18,40-40V46C506,24,488,6,466,6z M486,466
		c0,11.028-8.972,20-20,20H46c-11.028,0-20-8.972-20-20V46c0-11.028,8.972-20,20-20h420c11.028,0,20,8.972,20,20V466z"/>
</g>
<g>
	<path fill="#FFFFFF" d="M200.947,258.066l10.84-106.348h109.277v25.049h-86.279l-6.445,58.154
		c10.448-6.152,22.313-9.229,35.596-9.229c19.432,0,34.863,6.423,46.289,19.263c11.426,12.843,17.139,30.201,17.139,52.075
		c0,21.973-5.933,39.283-17.798,51.929c-11.865,12.648-28.443,18.97-49.731,18.97c-18.849,0-34.229-5.223-46.143-15.674
		c-11.916-10.448-18.702-24.902-20.361-43.359h25.635c1.659,12.209,6.006,21.412,13.037,27.612
		c7.031,6.203,16.308,9.302,27.832,9.302c12.598,0,22.485-4.296,29.663-12.891c7.178-8.592,10.767-20.457,10.767-35.596
		c0-14.257-3.882-25.708-11.646-34.351s-18.091-12.964-30.981-12.964c-11.817,0-21.094,2.589-27.832,7.764l-7.178,5.859
		L200.947,258.066z"/>
</g>
</svg>
