<?xml version="1.0" encoding="utf-8"?>
<!-- Generator: Adobe Illustrator 16.0.0, SVG Export Plug-In . SVG Version: 6.00 Build 0)  -->
<!DOCTYPE svg PUBLIC "-//W3C//DTD SVG 1.1//EN" "http://www.w3.org/Graphics/SVG/1.1/DTD/svg11.dtd">
<svg version="1.1" xmlns="http://www.w3.org/2000/svg" xmlns:xlink="http://www.w3.org/1999/xlink" x="0px" y="0px" width="200px"
	 height="200px" viewBox="124.5 -375.5 200 200" enable-background="new 124.5 -375.5 200 200" xml:space="preserve">
<g id="Layer_1">
	<g id="New_Symbol_7">
	</g>
</g>
<g id="New_Symbol_10">
</g>
<g id="New_Symbol_8">
	<path fill="#F23648" d="M224.5-370.5c-52.489,0-95,42.514-95,95s42.511,95,95,95s95-42.514,95-95S276.989-370.5,224.5-370.5z
		 M188.875-328.219l35.625,35.628l35.625-35.628l17.091,17.094L241.591-275.5l35.625,35.625l-17.091,17.094L224.5-258.409
		l-35.625,35.628l-17.091-17.094l35.625-35.625l-35.625-35.625L188.875-328.219z"/>
</g>
<g id="New_Symbol_9">
</g>
<g id="Isolation_Mode_2_">
</g>
</svg>
