<?xml version="1.0" encoding="utf-8"?>
<!-- Generator: Adobe Illustrator 16.0.0, SVG Export Plug-In . SVG Version: 6.00 Build 0)  -->
<!DOCTYPE svg PUBLIC "-//W3C//DTD SVG 1.1//EN" "http://www.w3.org/Graphics/SVG/1.1/DTD/svg11.dtd">
<svg version="1.1" id="Layer_1" xmlns="http://www.w3.org/2000/svg" xmlns:xlink="http://www.w3.org/1999/xlink" x="0px" y="0px"
	 width="200px" height="200px" viewBox="0 0 200 200" enable-background="new 0 0 200 200" xml:space="preserve">
<g>
	<polygon fill="#16A3F2" points="112.723,109.152 142.77,109.152 142.77,65.342 142.516,65.342 	"/>
	<path fill="#16A3F2" d="M100,1C45.324,1,1,45.324,1,100c0,54.676,44.324,99,99,99c54.676,0,99-44.324,99-99
		C199,45.324,154.676,1,100,1z M97.568,130.109v9.469H39.113c1.768-21.21,12.499-28.785,25.124-36.612
		c15.151-9.343,22.852-14.898,22.852-27.271c0-9.722-7.828-16.16-17.297-16.16c-12.499,0-17.801,11.489-17.422,22.22H41.637
		c-0.883-18.18,9.848-31.689,28.786-31.689c15.655,0,28.028,9.09,28.028,25.755c0,15.782-10.605,23.736-21.715,30.68
		c-11.236,6.817-22.978,12.498-25.124,23.608H97.568z M164.988,118.621h-12.119v20.957h-10.1v-20.957h-39.267v-10.354l40.779-58.204
		h8.585l0.002,59.088h12.119V118.621z"/>
</g>
</svg>
