<?xml version="1.0" encoding="utf-8"?>
<!-- Generator: Adobe Illustrator 16.0.0, SVG Export Plug-In . SVG Version: 6.00 Build 0)  -->
<!DOCTYPE svg PUBLIC "-//W3C//DTD SVG 1.1//EN" "http://www.w3.org/Graphics/SVG/1.1/DTD/svg11.dtd">
<svg version="1.1" id="Layer_1" xmlns="http://www.w3.org/2000/svg" xmlns:xlink="http://www.w3.org/1999/xlink" x="0px" y="0px"
	 width="200px" height="200px" viewBox="0 0 200 200" enable-background="new 0 0 200 200" xml:space="preserve">
<circle fill="#F26530" cx="100" cy="100" r="99.5"/>
<polygon fill="#F1F1F1" points="100,29.292 115.565,77.196 165.935,77.196 125.185,106.803 140.749,154.707 100,125.1 
	59.25,154.707 74.814,106.803 34.066,77.196 84.435,77.196 "/>
</svg>
