<?xml version="1.0" encoding="utf-8"?>
<!-- Generator: Adobe Illustrator 16.0.0, SVG Export Plug-In . SVG Version: 6.00 Build 0)  -->
<!DOCTYPE svg PUBLIC "-//W3C//DTD SVG 1.1//EN" "http://www.w3.org/Graphics/SVG/1.1/DTD/svg11.dtd">
<svg version="1.1" id="Layer_1" xmlns="http://www.w3.org/2000/svg" xmlns:xlink="http://www.w3.org/1999/xlink" x="0px" y="0px"
	 width="200px" height="200px" viewBox="0 0 200 200" enable-background="new 0 0 200 200" xml:space="preserve">
<g>
	<path fill="#F1F1F1" d="M137.794,115.148c0.75-0.748,1.05-1.648,1.05-2.699l-0.148-7.35c0-0.898-0.299-1.649-0.898-2.399
		l-3.302-3.9c-1.05-1.2-1.498-2.85-1.498-4.5V91h-22.5v2.85c0,0.751-0.149,1.65-1.054,1.65H90.545c-0.748,0-1.049-0.75-1.049-1.65
		V91h-22.5v3.301c0,1.65-0.45,3.3-1.499,4.5l-3.3,3.9c-0.602,0.599-0.901,1.501-0.901,2.4l-0.149,7.5c0,1.049,0.3,1.946,0.901,2.696
		l3.3,3.75c1.201,1.2,1.65,2.853,1.65,4.5v1.95h22.5v-2.7c0-0.897,0.15-1.8,1.05-1.8h18.9c0.75,0,1.05,0.898,1.047,1.8v2.7h22.5
		v-2.102c0-1.648,0.601-3.299,1.651-4.502L137.794,115.148z"/>
	<rect x="110.498" y="128.5" fill="#E5E5E5" width="22.5" height="9"/>
	<path fill="#E5E5E5" d="M99.999,34.15h0.3c1.199,0,5.25,0,10.65,0.901C108.998,30.85,104.799,28,99.999,28
		c-4.801,0-8.999,2.85-10.95,7.051c5.251-0.75,9.3-0.901,10.501-0.901H99.999z"/>
	<path fill="#E5E5E5" d="M63.999,142v-3v-12.15v-3.302c0-0.901-0.299-1.8-0.9-2.55l-3.149-3.75c-1.198-1.2-1.8-2.848-1.8-4.648
		l0.151-7.5c0-1.648,0.599-3.149,1.649-4.351l3.3-3.9c0.601-0.75,0.749-1.65,0.749-2.55v-4.2v-12.15v-2.25
		c0-0.9-0.299-1.799-0.9-2.549l-7.5-8.4c0,0.15,0,0.3,0,0.301c-3.9,11.4-5.55,35.7-7.2,59.25l-0.3,3.148
		c-0.599,8.851-0.75,18.9,5.7,27.001l9.3-9.751C63.7,143.95,63.999,143.05,63.999,142z"/>
	<path fill="#F1F1F1" d="M66.998,75.7V76h22.5v-1.05c0-0.9,0.15-1.95,1.05-1.95h18.9c0.75,0,1.05,1.05,1.05,1.95V76h22.5v-0.15
		c0-1.8,0.45-3.45,1.65-4.65l8.248-9.3c-10.049-21.149-39.147-21.75-42.601-21.75h-0.3h-0.449c-3.449,0-32.55,0.6-42.6,21.6l8.4,9.3
		C66.549,72.4,66.998,74.05,66.998,75.7z M76.149,48.699c11.399-5.25,23.401-5.1,23.85-5.1s12.451-0.299,23.999,5.1
		c0.749,0.301,1.051,1.2,0.749,1.951c-0.3,0.6-0.749,0.899-1.349,0.899c-0.148,0-0.45,0-0.604-0.149
		c-10.947-5.1-22.8-4.801-22.8-4.801c-0.149,0-11.852-0.15-22.649,4.801c-0.751,0.3-1.65,0-1.949-0.75S75.399,49,76.149,48.699z"/>
	<polygon fill="#E5E5E5" points="92.499,139 92.499,140.5 98.499,140.5 98.499,124 92.499,124 92.499,126.85 	"/>
	<polygon fill="#E5E5E5" points="107.498,140.499 107.498,139 107.498,126.85 107.498,124 101.497,124 101.497,140.499 	"/>
	<path fill="#F1F1F1" d="M132.998,142v-1.5h-22.5v1.2c0,0.751-0.152,1.8-1.051,1.8H90.548c-0.748,0-1.05-0.898-1.05-1.8v-1.2h-22.5
		v1.5c0,1.799-0.598,3.45-1.799,4.8l-9.451,9.9c8.25,8.1,23.099,12.3,44.25,12.3c21.148,0,36-4.2,44.249-12.3l-9.449-9.901
		C133.598,145.45,132.998,143.799,132.998,142z"/>
	<path fill="#E5E5E5" d="M151.902,127.6c-1.801-24.897-3.604-50.55-7.651-62.397v-0.15l-7.349,8.25C136.3,73.9,136,74.95,136,75.85
		v2.25v12.15v4.2c0,0.9,0.15,1.8,0.749,2.55l3.302,3.9c1.049,1.201,1.649,2.701,1.649,4.35l0.149,7.352
		c0.148,1.648-0.449,3.299-1.65,4.648L136.9,121c-0.604,0.75-0.9,1.65-0.9,2.55v3.3V139v3c0,1.05,0.299,1.95,1.05,2.699l9.148,9.751
		C152.646,146.35,152.498,136.3,151.902,127.6z"/>
	<rect x="110.498" y="79" fill="#E5E5E5" width="22.5" height="9"/>
	<rect x="66.997" y="79" fill="#E5E5E5" width="22.5" height="9"/>
	<polygon fill="#E5E5E5" points="107.498,77.95 107.498,76 101.497,76 101.497,92.5 107.498,92.5 107.498,90.1 	"/>
	<rect x="66.998" y="128.5" fill="#E5E5E5" width="22.5" height="9"/>
	<polygon fill="#E5E5E5" points="92.499,76 92.499,77.95 92.499,90.1 92.499,92.5 98.499,92.5 98.499,76 	"/>
</g>
</svg>
